{
  "project_info": {
    "project_number": "601951341342",
    "firebase_url": "https://shopness-451c3.firebaseio.com",
    "project_id": "shopness-451c3",
    "storage_bucket": "shopness-451c3.appspot.com"
  },
  "client": [
    {
      "client_info": {
        "mobilesdk_app_id": "1:601951341342:android:b6ecfe0fb6f44558",
        "android_client_info": {
          "package_name": "grand.shopness"
        }
      },
      "oauth_client": [
        {
          "client_id": "601951341342-2k1qdu4etcton2466ng8rtshah8ihm2c.apps.googleusercontent.com",
          "client_type": 1,
          "android_info": {
            "package_name": "grand.shopness",
            "certificate_hash": "b2a09e1d7554a2cab25372bb4db6da8577a4c013"
          }
        },
        {
          "client_id": "601951341342-vlqb6avvap0tcebtbo0m9omvecsbn3sc.apps.googleusercontent.com",
          "client_type": 3
        }
      ],
      "api_key": [
        {
          "current_key": "AIzaSyBcPWkmFd7BPMPdlcWHSPGCLSCwkRgfeJc"
        }
      ],
      "services": {
        "appinvite_service": {
          "other_platform_oauth_client": [
            {
              "client_id": "601951341342-vlqb6avvap0tcebtbo0m9omvecsbn3sc.apps.googleusercontent.com",
              "client_type": 3
            }
          ]
        }
      }
    }
  ],
  "configuration_version": "1"
}